Source Points:
628.0 789.0 17.0
1164.0 1224.0 4.0
1229.0 1337.0 6.0
1428.0 1158.0 16.0
1427.0 1154.0 12.0
580.0 572.0 30.0
1267.0 1227.0 21.0
1266.0 728.0 21.0
626.0 794.0 12.0

Destination Points:
259.0 120.0 154.0
371.0 297.0 160.0
377.0 331.0 154.0
447.0 303.0 113.0
448.0 304.0 119.0
262.0 56.0 122.0
392.0 306.0 117.0
440.0 170.0 97.0
259.0 123.0 162.0

